sample_project/counter.vcd
$timescale 1ns $end
$scope module counter_tb $end
$var wire 1 ! clk $end
$var wire 1 " rst $end
$var wire 1 # en $end
$var reg 8 $ count_out $end
$var reg 1 % overflow $end
$upscope $end
$enddefinitions $end
$dumpvars
0!
1"
0#
b00000000 $
0%
$end
#10
1!
#20
0"
1#
#30
0!
#40
1!
b00000001 $
#50
0!
#60
1!
b00000010 $
#70
0!
#80
1!
b00000011 $
#470
b00000000 $
1%
#480
0%
#940
bxxxxxxxx $
#1000
b00000000 $
